\relax 
\bibstyle{unsrtnat}
\citation{brito2004turbulent}
\citation{lin2015shear,hollerbach2013parity}
\citation{wei2013stratified}
\citation{brito2004turbulent}
\citation{lin2015shear}
\@writefile{toc}{\contentsline {section}{\numberline {1}Introduction}{1}}
\@writefile{toc}{\contentsline {section}{\numberline {2}Methods}{1}}
\citation{wei2013stratified}
\citation{lin2015shear}
\citation{marti2014full}
\citation{hollerbach2013parity}
\citation{lin2015shear}
\citation{lorenzani2003inertial}
\citation{lin2015shear}
\citation{lin2015shear}
\citation{lin2015shear}
\citation{lin2015shear}
\citation{lin2015shear}
\citation{brito2004turbulent}
\newlabel{eq2}{{2}{2}}
\@writefile{toc}{\contentsline {section}{\numberline {3}Objectives}{2}}
\@writefile{lof}{\contentsline {figure}{\numberline {1}{\ignorespaces From \citet  {lin2015shear}, anti-symmetric Energy $Ek_a$ as a function of time for $P_o = -7.0\cdot 10^{-3}$ and $E=3.0\cdot 10^{-5}$}}{3}}
\newlabel{antisymmetric_energy_growth}{{1}{3}}
\@writefile{lof}{\contentsline {figure}{\numberline {2}{\ignorespaces From \citet  {lin2015shear}, stability-diagram in the $\left (P_o,E\right )$ plane. $\left (\circ \right )$ represent a steady symmetric flow, $\left (\vartriangle \right )$ an unsteady symmetric flow and $\left (\blacktriangle \right )$ an unsteady flow with both symmetric and antisymmetric components}}{3}}
\newlabel{stability_diagram}{{2}{3}}
\bibdata{biblio}
\bibcite{brito2004turbulent}{{1}{2004}{{Brito et~al.}}{{Brito, Aurnou, and Cardin}}}
\bibcite{lin2015shear}{{2}{2015}{{Lin et~al.}}{{Lin, Marti, and Noir}}}
\bibcite{hollerbach2013parity}{{3}{2013}{{Hollerbach et~al.}}{{Hollerbach, Nore, Marti, Vantieghem, Luddens, and L{\'e}orat}}}
\bibcite{wei2013stratified}{{4}{2013}{{Wei and Tilgner}}{{}}}
\bibcite{marti2014full}{{5}{2014}{{Marti et~al.}}{{Marti, Schaeffer, Hollerbach, C{\'e}bron, Nore, Luddens, Guermond, Aubert, Takehiro, Sasaki, et~al.}}}
\bibcite{lorenzani2003inertial}{{6}{2003}{{Lorenzani and Tilgner}}{{}}}
